{
    "make": "Suzuki",
    "model": "Cappuccino",
    "chassis code": "EA11",
    "RPM"  : [2800, 3200, 4000, 5000, 6000, 7000, 8000 ],
    "MAP"  : [ 180,  200,  200,  197,  192,  180,  175 ],
    "VE"   : [  89,   91,   90,   82,   77,   72,   66 ],
    "Power": [  25,   30,   35,   43,   50,   50,   49 ]
}